Reproducible documents
…
Figure 4: BMI and auc_pg,

10 - Collaborating with GitHub

### Pushing changes to remote

### pulling

11 - Data management and wrangling

post_meal_data |>
  select(Insulin10)

# A tibble: 31 × 1
   Insulin10
       <dbl>
 1      97.2
 2     139. 
 3      26.4
 4      90.3
 5      59.0
 6      50.0
 7      55.6
 8      22.9
 9      63.2
10      63.2
# ℹ 21 more rows

post_meal_data |>
  select(-Group)

# A tibble: 31 × 84
   OFS.ID   Age   BMI Length Weight Bone.mineral.DXA Fat.mass...DXA Fat.mass.DXA
   <chr>  <dbl> <dbl>  <dbl>  <dbl>            <dbl>          <dbl>        <dbl>
 1 OFS 3…    50  27.5   1.83   92               3.54           30.2         27.9
 2 OFS 3…    51  33.7   1.77  106.              4.05           36.4         38.7
 3 OFS 3…    43  26.3   1.84   89.1             3.77           24.4         21.9
 4 OFS 3…    55  25.9   1.8    84               3.14           27.5         23.2
 5 OFS 3…    53  29.4   1.84   99.4             4.09           31.2         31.2
 6 OFS 3…    51  23.7   1.8    76.8             3.21           20           15.3
 7 OFS 3…    48  23.9   1.78   75.8             3.33           15.4         11.8
 8 OFS 3…    35  22     1.75   67.5             3.26           13.8          9.4
 9 OFS 3…    54  26.4   1.83   87.9             4.49           20           17.9
10 OFS 3…    52  24.5   1.72   72.2             2.87           28.5         20.7
# ℹ 21 more rows
# ℹ 76 more variables: Fat.free.mass.DXA <dbl>, Fat.free.soft.tissue.DXA <dbl>,
#   FP.Glucose.screen <dbl>, P.Glucose..5.OGTT <dbl>, P.Glucose.0.OGTT <dbl>,
#   P.GLucose.30.OGTT <dbl>, P.Glucose.60.OGTT <dbl>, P.Glucose.90.OGTT <dbl>,
#   P.Glucose.120.OGTT <dbl>, FS.Insulin.screen <dbl>, Insulin..5.OGTT.X <dbl>,
#   Insulin.0.OGTT.X <dbl>, Insulin.0.OGTT <dbl>, Insulin.30.OGTT <dbl>,
#   Insulin.60.OGTT <dbl>, Insulin.90.OGTT <dbl>, Insulin.120.OGTT <dbl>, …

post_meal_data |>
  select(Age, BMI, Weight)

# A tibble: 31 × 3
     Age   BMI Weight
   <dbl> <dbl>  <dbl>
 1    50  27.5   92  
 2    51  33.7  106. 
 3    43  26.3   89.1
 4    55  25.9   84  
 5    53  29.4   99.4
 6    51  23.7   76.8
 7    48  23.9   75.8
 8    35  22     67.5
 9    54  26.4   87.9
10    52  24.5   72.2
# ℹ 21 more rows

post_meal_data |>
  select(starts_with("PG"))

# A tibble: 31 × 15
   PG.15  PG.5   PG1   PG2   PG3   PG5   PG8  PG10  PG15  PG20  PG30  PG45  PG60
   <dbl> <dbl> <dbl> <dbl> <dbl> <dbl> <dbl> <dbl> <dbl> <dbl> <dbl> <dbl> <dbl>
 1   5.4   5.4   5.4   5.5   5.3   5.3   5.5   5.5   5.8   6.1   6.9   7.6   6.5
 2   5.2   5.4   5.4   5.4   5.4   5.4   5.5   5.6   6     6.5   7.5   7.8   7.5
 3   4.9   5     5.1   5.1   5.1   5     5.1   5.1   5     5.2   5.5   5.8   5.6
 4   4.8   4.8   4.8   4.8   4.7   4.9   4.9   5.1   5.3   5.1   5.5   6.2   6.7
 5   5.9   5.8   5.8   5.9   5.8   5.8   5.7   5.7   6.2   7.2   8     9.3   9.1
 6   5     4.9   5.1   5.1   5.1   5     5     5     5.5   5.6   6.1   6.4   5.9
 7   5     5.1   5     5     5.1   5.1   5.1   5.2   5.7   6.1   7.9   9.8   9.4
 8   4.6   4.6   4.9   4.9   4.9   4.8   4.7   4.8   5.1   5.5   6.5   7.3   6.2
 9   5.3   5.1   5.2   5.3   5.4   5.2   5.2   5.4   6     6.4   7.1   7.2   6.8
10   4.9   4.9   4.8   4.8   4.8   4.9   5.1   5     5.3   6     6.5   6.7   6.8
# ℹ 21 more rows
# ℹ 2 more variables: PG90 <dbl>, PG120 <dbl>

post_meal_data |>
  select(ends_with("DXA"))

# A tibble: 31 × 5
   Bone.mineral.DXA Fat.mass...DXA Fat.mass.DXA Fat.free.mass.DXA
              <dbl>          <dbl>        <dbl>             <dbl>
 1             3.54           30.2         27.9              64.3
 2             4.05           36.4         38.7              67.8
 3             3.77           24.4         21.9              68.0
 4             3.14           27.5         23.2              61.1
 5             4.09           31.2         31.2              69.0
 6             3.21           20           15.3              60.9
 7             3.33           15.4         11.8              64.9
 8             3.26           13.8          9.4              59.0
 9             4.49           20           17.9              71.3
10             2.87           28.5         20.7              51.8
# ℹ 21 more rows
# ℹ 1 more variable: Fat.free.soft.tissue.DXA <dbl>

post_meal_data |>
  select(contains("0"))

# A tibble: 31 × 29
   P.Glucose.0.OGTT P.GLucose.30.OGTT P.Glucose.60.OGTT P.Glucose.90.OGTT
              <dbl>             <dbl>             <dbl>             <dbl>
 1             5.1                9.4               6.9               4.7
 2             5.4                8.4               8.4               8.7
 3             4.9                6.8               4.3               3.8
 4             5.15               8.8               8.4               7.5
 5             5.55               9.9              10.6              11  
 6             5.6                8.9               9.1               7.1
 7             5                  7.6               6.3               5.3
 8             5.15               6.4               7.6               6.3
 9             4.9                7.4               6.8               5.5
10             5.3                8.7              10.1               6.8
# ℹ 21 more rows
# ℹ 25 more variables: P.Glucose.120.OGTT <dbl>, Insulin.0.OGTT.X <dbl>,
#   Insulin.0.OGTT <dbl>, Insulin.30.OGTT <dbl>, Insulin.60.OGTT <dbl>,
#   Insulin.90.OGTT <dbl>, Insulin.120.OGTT <dbl>, PG10 <dbl>, PG20 <dbl>,
#   PG30 <dbl>, PG60 <dbl>, PG90 <dbl>, PG120 <dbl>, CP10 <dbl>, CP20 <dbl>,
#   CP30 <dbl>, CP60 <dbl>, CP90 <dbl>, CP120 <dbl>, Insulin10 <dbl>,
#   Insulin20 <dbl>, Insulin30 <dbl>, Insulin60 <dbl>, Insulin90 <dbl>, …

Renaming specific columns

colnames(small_post_meal_data)

[1] "id"      "Age"     "BMI"     "Group"   "auc_pg"  "auc_ins" "glykemi"

small_post_meal_data |>
  rename(
    Auc_glucose = auc_pg,
    Auc_insulin = auc_ins
  )

# A tibble: 31 × 7
      id   Age   BMI Group Auc_glucose Auc_insulin glykemi
   <dbl> <dbl> <dbl> <chr>       <dbl>       <dbl>   <dbl>
 1     1    50  27.5 FDR          806.      28728.       0
 2     2    51  33.7 FDR          944.      42243.       0
 3     3    43  26.3 FDR          694.       7108.       0
 4     4    55  25.9 FDR          731.      37593.       0
 5     5    53  29.4 FDR         1004.      33863.       0
 6     6    51  23.7 FDR          713.      15008.       0
 7     7    48  23.9 FDR          965.      23196.       0
 8     8    35  22   FDR          741.      15272.       0
 9     9    54  26.4 FDR          848.      24426.       0
10    10    52  24.5 FDR          759.      22475.       0
# ℹ 21 more rows

basic_info <- select(post_meal_data, id, BMI, Length, Weight, Age)
rename(basic_info, Height = Length)

# A tibble: 31 × 5
      id   BMI Height Weight   Age
   <dbl> <dbl>  <dbl>  <dbl> <dbl>
 1     1  27.5   1.83   92      50
 2     2  33.7   1.77  106.     51
 3     3  26.3   1.84   89.1    43
 4     4  25.9   1.8    84      55
 5     5  29.4   1.84   99.4    53
 6     6  23.7   1.8    76.8    51
 7     7  23.9   1.78   75.8    48
 8     8  22     1.75   67.5    35
 9     9  26.4   1.83   87.9    54
10    10  24.5   1.72   72.2    52
# ℹ 21 more rows

post_meal_data |>
  select(contains("OGTT"))

# A tibble: 31 × 13
   P.Glucose..5.OGTT P.Glucose.0.OGTT P.GLucose.30.OGTT P.Glucose.60.OGTT
               <dbl>            <dbl>             <dbl>             <dbl>
 1               5.1             5.1                9.4               6.9
 2               5.6             5.4                8.4               8.4
 3               5               4.9                6.8               4.3
 4               5.3             5.15               8.8               8.4
 5               5.6             5.55               9.9              10.6
 6               5.8             5.6                8.9               9.1
 7               5.1             5                  7.6               6.3
 8               5.3             5.15               6.4               7.6
 9               5               4.9                7.4               6.8
10               5.5             5.3                8.7              10.1
# ℹ 21 more rows
# ℹ 9 more variables: P.Glucose.90.OGTT <dbl>, P.Glucose.120.OGTT <dbl>,
#   Insulin..5.OGTT.X <dbl>, Insulin.0.OGTT.X <dbl>, Insulin.0.OGTT <dbl>,
#   Insulin.30.OGTT <dbl>, Insulin.60.OGTT <dbl>, Insulin.90.OGTT <dbl>,
#   Insulin.120.OGTT <dbl>

post_meal_data |>
  select(contains(".."), -contains("...")) |>
  rename(
    P.Glucose.minus5.OGTT = P.Glucose..5.OGTT,
    Insulin.minus5.OGTT.X = Insulin..5.OGTT.X
  )

# A tibble: 31 × 2
   P.Glucose.minus5.OGTT Insulin.minus5.OGTT.X
                   <dbl>                 <dbl>
 1                   5.1                  53.5
 2                   5.6                  90.3
 3                   5                    20.8
 4                   5.3                  52.1
 5                   5.6                  44.4
 6                   5.8                  32.6
 7                   5.1                  38.2
 8                   5.3                  30.6
 9                   5                    28.5
10                   5.5                  35.4
# ℹ 21 more rows

post_meal_data |>
  select(contains(".."), -contains("...")) |>
  rename_with(~ gsub("..", ".minus", .x, fixed = TRUE))

# A tibble: 31 × 2
   P.Glucose.minus5.OGTT Insulin.minus5.OGTT.X
                   <dbl>                 <dbl>
 1                   5.1                  53.5
 2                   5.6                  90.3
 3                   5                    20.8
 4                   5.3                  52.1
 5                   5.6                  44.4
 6                   5.8                  32.6
 7                   5.1                  38.2
 8                   5.3                  30.6
 9                   5                    28.5
10                   5.5                  35.4
# ℹ 21 more rows
…
small_post_meal_data |>
  filter(Group == "CTR" | BMI >= 25)

# A tibble: 23 × 7
      id   Age   BMI Group auc_pg auc_ins glykemi
   <dbl> <dbl> <dbl> <chr>  <dbl>   <dbl>   <dbl>
 1     1    50  27.5 FDR     806.  28728.       0
 2     2    51  33.7 FDR     944.  42243.       0
 3     3    43  26.3 FDR     694.   7108.       0
 4     4    55  25.9 FDR     731.  37593.       0
 5     5    53  29.4 FDR    1004.  33863.       0
 6     9    54  26.4 FDR     848.  24426.       0
 7    11    47  27.9 FDR     764.  23176.       0
 8    16    52  27.5 FDR     824.  36487.       0
 9    17    51  29.7 CTR     834.  39020.       0
10    18    51  21.2 CTR     787.  12343.       0
# ℹ 13 more rows

11.8 Modify or add column

tidier_post_meal_data |>
  mutate(
    insulin_glucose_ratio = auc_insulin / auc_glucose,
    Group = if_else(Group == "CTR", "Control", "First Degree Relative")
  )

# A tibble: 27 × 8
      id   Age   BMI Group         auc_glucose auc_insulin insulin_glucose_ratio
   <dbl> <dbl> <dbl> <chr>               <dbl>       <dbl>                 <dbl>
 1     1    50  27.5 First Degree…        806.      28728.                  35.7
 2     2    51  33.7 First Degree…        944.      42243.                  44.7
 3     3    43  26.3 First Degree…        694.       7108.                  10.2
 4     4    55  25.9 First Degree…        731.      37593.                  51.4
 5     5    53  29.4 First Degree…       1004.      33863.                  33.7
 6     6    51  23.7 First Degree…        713.      15008.                  21.1
 7     7    48  23.9 First Degree…        965.      23196.                  24.0
 8     8    35  22   First Degree…        741.      15272.                  20.6
 9     9    54  26.4 First Degree…        848.      24426.                  28.8
10    10    52  24.5 First Degree…        759.      22475.                  29.6
# ℹ 17 more rows
# ℹ 1 more variable: Overweight <chr>
…
12.2

tidier_post_meal_data |> 
  mutate(Overweight = if_else(BMI >= 25 , TRUE, FALSE))

# A tibble: 27 × 8
      id   Age   BMI Group         auc_glucose auc_insulin insulin_glucose_ratio
   <dbl> <dbl> <dbl> <chr>               <dbl>       <dbl>                 <dbl>
 1     1    50  27.5 First Degree…        806.      28728.                  35.7
 2     2    51  33.7 First Degree…        944.      42243.                  44.7
 3     3    43  26.3 First Degree…        694.       7108.                  10.2
 4     4    55  25.9 First Degree…        731.      37593.                  51.4
 5     5    53  29.4 First Degree…       1004.      33863.                  33.7
 6     6    51  23.7 First Degree…        713.      15008.                  21.1
 7     7    48  23.9 First Degree…        965.      23196.                  24.0
 8     8    35  22   First Degree…        741.      15272.                  20.6
 9     9    54  26.4 First Degree…        848.      24426.                  28.8
10    10    52  24.5 First Degree…        759.      22475.                  29.6
# ℹ 17 more rows
# ℹ 1 more variable: Overweight <lgl>
…
Make multi-dimensional plots!

post_meal_data |>
  mutate(
    percent_body_fat = (Fat.mass.DXA / Weight) * 100)
post_meal_data |>
  mutate(percent_body_fat = (Fat.mass.DXA / Weight) * 100,
    young = if_else(Age < 40, "Young", "Old")) |>
  ggplot(aes(x = Group, y = percent_body_fat, colour = young)) +
  geom_jitter(width = 0.2)

# A tibble: 31 × 86
   OFS.ID  Group   Age   BMI Length Weight Bone.mineral.DXA Fat.mass...DXA
   <chr>   <chr> <dbl> <dbl>  <dbl>  <dbl>            <dbl>          <dbl>
 1 OFS 301 FDR      50  27.5   1.83   92               3.54           30.2
 2 OFS 302 FDR      51  33.7   1.77  106.              4.05           36.4
 3 OFS 304 FDR      43  26.3   1.84   89.1             3.77           24.4
 4 OFS 303 FDR      55  25.9   1.8    84               3.14           27.5
 5 OFS 305 FDR      53  29.4   1.84   99.4             4.09           31.2
 6 OFS 306 FDR      51  23.7   1.8    76.8             3.21           20  
 7 OFS 307 FDR      48  23.9   1.78   75.8             3.33           15.4
 8 OFS 308 FDR      35  22     1.75   67.5             3.26           13.8
 9 OFS 309 FDR      54  26.4   1.83   87.9             4.49           20  
10 OFS 310 FDR      52  24.5   1.72   72.2             2.87           28.5
# ℹ 21 more rows
# ℹ 78 more variables: Fat.mass.DXA <dbl>, Fat.free.mass.DXA <dbl>,
#   Fat.free.soft.tissue.DXA <dbl>, FP.Glucose.screen <dbl>,
#   P.Glucose..5.OGTT <dbl>, P.Glucose.0.OGTT <dbl>, P.GLucose.30.OGTT <dbl>,
#   P.Glucose.60.OGTT <dbl>, P.Glucose.90.OGTT <dbl>, P.Glucose.120.OGTT <dbl>,
#   FS.Insulin.screen <dbl>, Insulin..5.OGTT.X <dbl>, Insulin.0.OGTT.X <dbl>,
#   Insulin.0.OGTT <dbl>, Insulin.30.OGTT <dbl>, Insulin.60.OGTT <dbl>, …
…
